{
    "posts": [
        {
            "id": 1,
            "title": "hello"
        }
    ],
    "supplers": {
        "current_page":1,
        "data":[
            {"id":1,"name_en":"Papaya Trade","name_kh":"Papaya Trade","phone":null,"email":null,"address":null,"latitude":null,"longitude":null,"created_at":"2020-07-18T14:14:14.000000Z","created_by":1,"updated_at":"2020-07-18T14:14:14.000000Z","updated_by":1,"deleted_at":null,"deleted_by":null,"name":"Papaya Trade"},
            {"id":2,"name_en":"ASIAN WORKING TRACTOR (Ses Samot)","name_kh":"ASIAN WORKING TRACTOR (Ses Samot)","phone":null,"email":null,"address":null,"latitude":null,"longitude":null,"created_at":"2020-07-18T14:14:14.000000Z","created_by":1,"updated_at":"2020-07-18T14:14:14.000000Z","updated_by":1,"deleted_at":null,"deleted_by":null,"name":"ASIAN WORKING TRACTOR (Ses Samot)"},
            {"id":3,"name_en":"MARBO AGRICULTURAL INTERNATIONAL INVESTMENT CO.,LTD","name_kh":"MARBO AGRICULTURAL INTERNATIONAL INVESTMENT CO.,LTD","phone":null,"email":null,"address":null,"latitude":null,"longitude":null,"created_at":"2020-07-18T14:14:14.000000Z","created_by":1,"updated_at":"2020-07-18T14:14:14.000000Z","updated_by":1,"deleted_at":null,"deleted_by":null,"name":"MARBO AGRICULTURAL INTERNATIONAL INVESTMENT CO.,LTD"},
            {"id":4,"name_en":"An Giang Plant  Protection COMPANY LIMITED (Cambodia)","name_kh":"An Giang Plant  Protection COMPANY LIMITED (Cambodia)","phone":null,"email":null,"address":null,"latitude":null,"longitude":null,"created_at":"2020-07-18T14:14:14.000000Z","created_by":1,"updated_at":"2020-07-18T14:14:14.000000Z","updated_by":1,"deleted_at":null,"deleted_by":null,"name":"An Giang Plant  Protection COMPANY LIMITED (Cambodia)"},
            {"id":5,"name_en":"Agrotechvita","name_kh":"Agrotechvita","phone":null,"email":null,"address":null,"latitude":null,"longitude":null,"created_at":"2020-07-18T14:14:14.000000Z","created_by":1,"updated_at":"2020-07-18T14:14:14.000000Z","updated_by":1,"deleted_at":null,"deleted_by":null,"name":"Agrotechvita"},
            {"id":6,"name_en":"NILIDA","name_kh":"NILIDA","phone":null,"email":null,"address":null,"latitude":null,"longitude":null,"created_at":"2020-07-18T14:14:14.000000Z","created_by":1,"updated_at":"2020-07-18T14:14:14.000000Z","updated_by":1,"deleted_at":null,"deleted_by":null,"name":"NILIDA"},
            {"id":7,"name_en":"HAC (Hoang An Agrochem Import Export Joint Stock Company)","name_kh":"HAC (Hoang An Agrochem Import Export Joint Stock Company)","phone":null,"email":null,"address":null,"latitude":null,"longitude":null,"created_at":"2020-07-18T14:14:14.000000Z","created_by":1,"updated_at":"2020-07-18T14:14:14.000000Z","updated_by":1,"deleted_at":null,"deleted_by":null,"name":"HAC (Hoang An Agrochem Import Export Joint Stock Company)"},
            {"id":8,"name_en":"VFC Cambodia","name_kh":"VFC Cambodia","phone":null,"email":null,"address":null,"latitude":null,"longitude":null,"created_at":"2020-07-18T14:14:14.000000Z","created_by":1,"updated_at":"2020-07-18T14:14:14.000000Z","updated_by":1,"deleted_at":null,"deleted_by":null,"name":"VFC Cambodia"},
            {"id":9,"name_en":"ASIAN WORKING TRACTOR (Cambodia)","name_kh":"ASIAN WORKING TRACTOR (Cambodia)","phone":null,"email":null,"address":null,"latitude":null,"longitude":null,"created_at":"2020-07-18T14:14:14.000000Z","created_by":1,"updated_at":"2020-07-18T14:14:14.000000Z","updated_by":1,"deleted_at":null,"deleted_by":null,"name":"ASIAN WORKING TRACTOR (Cambodia)"},
            {"id":10,"name_en":"Kasekor Khmer Angkor","name_kh":"Kasekor Khmer Angkor","phone":null,"email":null,"address":null,"latitude":null,"longitude":null,"created_at":"2020-07-18T14:14:14.000000Z","created_by":1,"updated_at":"2020-07-18T14:14:14.000000Z","updated_by":1,"deleted_at":null,"deleted_by":null,"name":"Kasekor Khmer Angkor"},
            {"id":11,"name_en":"Nylida","name_kh":"Nylida","phone":null,"email":null,"address":null,"latitude":null,"longitude":null,"created_at":"2020-07-18T14:14:14.000000Z","created_by":1,"updated_at":"2020-07-18T14:14:14.000000Z","updated_by":1,"deleted_at":null,"deleted_by":null,"name":"Nylida"},
            {"id":12,"name_en":"SPK","name_kh":"SPK","phone":null,"email":null,"address":null,"latitude":null,"longitude":null,"created_at":"2020-07-18T14:14:14.000000Z","created_by":1,"updated_at":"2020-07-18T14:14:14.000000Z","updated_by":1,"deleted_at":null,"deleted_by":null,"name":"SPK"},
            {"id":13,"name_en":"FTC","name_kh":"FTC","phone":null,"email":null,"address":null,"latitude":null,"longitude":null,"created_at":"2020-07-18T14:14:14.000000Z","created_by":1,"updated_at":"2020-07-18T14:14:14.000000Z","updated_by":1,"deleted_at":null,"deleted_by":null,"name":"FTC"},
            {"id":14,"name_en":"SAHACO","name_kh":"SAHACO","phone":null,"email":null,"address":null,"latitude":null,"longitude":null,"created_at":"2020-07-18T14:14:14.000000Z","created_by":1,"updated_at":"2020-07-18T14:14:14.000000Z","updated_by":1,"deleted_at":null,"deleted_by":null,"name":"SAHACO"},
            {"id":15,"name_en":"Nileda Co., Ltd","name_kh":"Nileda Co., Ltd","phone":null,"email":null,"address":null,"latitude":null,"longitude":null,"created_at":"2020-07-18T14:14:14.000000Z","created_by":1,"updated_at":"2020-07-18T14:14:14.000000Z","updated_by":1,"deleted_at":null,"deleted_by":null,"name":"Nileda Co., Ltd"}
        ],
        "first_page_url":"http:\/\/127.0.0.1:8000\/api\/suppliers?page=1",
        "from":1,
        "last_page":5,
        "last_page_url":"http:\/\/127.0.0.1:8000\/api\/suppliers?page=5",
        "next_page_url":"http:\/\/127.0.0.1:8000\/api\/suppliers?page=2",
        "path":"http:\/\/127.0.0.1:8000\/api\/suppliers",
        "per_page":15,
        "prev_page_url":null,
        "to":15,
        "total":65
    },
    "profile": {
        "name": "typicode"
    }
}